{
    "workspace": {
        "name": "test",
        "columns": [
            {
                "name": "Prvni",
                "tasks": [
                    {
                        "name": "Task1",
                        "description": "Prvni task",
                        "due": null
                    },
                    {
                        "name": "Task2",
                        "description": "Druhy task",
                        "due": null
                    },
                    {
                        "name": "Task3",
                        "description": "Treti task",
                        "due": null
                    }
                ]
            },
            {
                "name": "Druhy",
                "tasks": [
                    {
                        "name": "Task1",
                        "description": "Prvni task",
                        "due": null
                    },
                    {
                        "name": "Task2",
                        "description": "Druhy task",
                        "due": null
                    }
                ]
            }
        ]
    }
}